%!PS-Adobe-3.0
%%Creator: PCBNEW
%%CreationDate: Sat Jul 11 13:17:56 2015
%%Title: /home/johnny/Dropbox/proyectos/chinchorro/kicad/chinchorro-F_Cu.ps
%%Pages: 1
%%PageOrder: Ascend
%%BoundingBox: 0 0 842 1191
%%DocumentMedia: A3 842 1191 0 () ()
%%Orientation: Landscape
%%EndComments
%%BeginProlog
/line { newpath moveto lineto stroke } bind def
/cir0 { newpath 0 360 arc stroke } bind def
/cir1 { newpath 0 360 arc gsave fill grestore stroke } bind def
/cir2 { newpath 0 360 arc gsave fill grestore stroke } bind def
/arc0 { newpath arc stroke } bind def
/arc1 { newpath 4 index 4 index moveto arc closepath gsave fill
    grestore stroke } bind def
/arc2 { newpath 4 index 4 index moveto arc closepath gsave fill
    grestore stroke } bind def
/poly0 { stroke } bind def
/poly1 { closepath gsave fill grestore stroke } bind def
/poly2 { closepath gsave fill grestore stroke } bind def
/rect0 { rectstroke } bind def
/rect1 { rectfill } bind def
/rect2 { rectfill } bind def
/linemode0 { 0 setlinecap 0 setlinejoin 0 setlinewidth } bind def
/linemode1 { 1 setlinecap 1 setlinejoin } bind def
/dashedline { [200] 100 setdash } bind def
/solidline { [] 0 setdash } bind def
/phantomshow { moveto
    /KicadFont findfont 0.000001 scalefont setfont
    show } bind def
/textshow { gsave
    findfont exch scalefont setfont concat 1 scale 0 0 moveto show
    } bind def
/reencodefont {
  findfont dup length dict begin
  { 1 index /FID ne
    { def }
    { pop pop } ifelse
  } forall
  /Encoding ISOLatin1Encoding def
  currentdict
  end } bind def
/KicadFont /Helvetica reencodefont definefont pop
/KicadFont-Bold /Helvetica-Bold reencodefont definefont pop
/KicadFont-Oblique /Helvetica-Oblique reencodefont definefont pop
/KicadFont-BoldOblique /Helvetica-BoldOblique reencodefont definefont pop
%%EndProlog
%%Page: 1 1
%%BeginPageSetup
gsave
0.0072 0.0072 scale
linemode1
116930 0 translate 90 rotate
59.0551 setlinewidth
%%EndPageSetup
0 0 0 setrgbcolor
0 0 0 setrgbcolor
59.0551 setlinewidth
newpath
28754.5 97684.5 moveto
28754.5 98175.5 lineto
29245.5 98175.5 lineto
29245.5 97684.5 lineto
28754.5 97684.5 lineto
poly1
0 0 0 setrgbcolor
28000 97930 245.472 cir1
0 0 0 setrgbcolor
28000 96930 245.472 cir1
0 0 0 setrgbcolor
newpath
26254.5 93684.5 moveto
26254.5 94175.5 lineto
26745.5 94175.5 lineto
26745.5 93684.5 lineto
26254.5 93684.5 lineto
poly1
0 0 0 setrgbcolor
25500 93930 245.472 cir1
0 0 0 setrgbcolor
25500 92930 245.472 cir1
0 0 0 setrgbcolor
newpath
22745.5 93684.5 moveto
22254.5 93684.5 lineto
22254.5 94175.5 lineto
22745.5 94175.5 lineto
22745.5 93684.5 lineto
poly1
0 0 0 setrgbcolor
22500 92930 245.472 cir1
0 0 0 setrgbcolor
23500 92930 245.472 cir1
0 0 0 setrgbcolor
newpath
25745.5 97684.5 moveto
25254.5 97684.5 lineto
25254.5 98175.5 lineto
25745.5 98175.5 lineto
25745.5 97684.5 lineto
poly1
0 0 0 setrgbcolor
25500 96930 245.472 cir1
0 0 0 setrgbcolor
26500 96930 245.472 cir1
0 0 0 setrgbcolor
26750 101930 245.472 cir1
0 0 0 setrgbcolor
30250 101930 245.472 cir1
0 0 0 setrgbcolor
26750 100430 245.472 cir1
0 0 0 setrgbcolor
30250 100430 245.472 cir1
0 0 0 setrgbcolor
20500 98930 245.472 cir1
0 0 0 setrgbcolor
23500 98930 245.472 cir1
0 0 0 setrgbcolor
20500 96930 245.472 cir1
0 0 0 setrgbcolor
23500 96930 245.472 cir1
0 0 0 setrgbcolor
20500 95930 245.472 cir1
0 0 0 setrgbcolor
23500 95930 245.472 cir1
0 0 0 setrgbcolor
20500 97930 245.472 cir1
0 0 0 setrgbcolor
23500 97930 245.472 cir1
0 0 0 setrgbcolor
13000 90930 245.472 cir1
0 0 0 setrgbcolor
13000 93930 245.472 cir1
0 0 0 setrgbcolor
12000 90930 245.472 cir1
0 0 0 setrgbcolor
12000 93930 245.472 cir1
0 0 0 setrgbcolor
11000 90930 245.472 cir1
0 0 0 setrgbcolor
11000 93930 245.472 cir1
0 0 0 setrgbcolor
19500 100430 245.472 cir1
0 0 0 setrgbcolor
22500 100430 245.472 cir1
0 0 0 setrgbcolor
25500 100430 245.472 cir1
0 0 0 setrgbcolor
25500 103430 245.472 cir1
0 0 0 setrgbcolor
593 setlinewidth
newpath
11000 106227 moveto
11000 105633 lineto
stroke
0 0 0 setrgbcolor
newpath
12000 106227 moveto
12000 105633 lineto
stroke
0 0 0 setrgbcolor
newpath
28000 93727 moveto
28000 93133 lineto
stroke
0 0 0 setrgbcolor
newpath
29000 93727 moveto
29000 93133 lineto
stroke
0 0 0 setrgbcolor
newpath
28000 90227 moveto
28000 89633 lineto
stroke
0 0 0 setrgbcolor
newpath
29000 90227 moveto
29000 89633 lineto
stroke
0 0 0 setrgbcolor
newpath
28000 106227 moveto
28000 105633 lineto
stroke
0 0 0 setrgbcolor
newpath
29000 106227 moveto
29000 105633 lineto
stroke
0 0 0 setrgbcolor
newpath
14000 106727 moveto
14000 106133 lineto
stroke
0 0 0 setrgbcolor
newpath
15000 106727 moveto
15000 106133 lineto
stroke
0 0 0 setrgbcolor
newpath
21500 90227 moveto
21500 89633 lineto
stroke
0 0 0 setrgbcolor
newpath
22500 90227 moveto
22500 89633 lineto
stroke
0 0 0 setrgbcolor
newpath
24500 90227 moveto
24500 89633 lineto
stroke
0 0 0 setrgbcolor
newpath
25500 90227 moveto
25500 89633 lineto
stroke
0 0 0 setrgbcolor
59.0551 setlinewidth
newpath
18729.5 106700 moveto
19270.5 106700 lineto
19270.5 106160 lineto
18729.5 106160 lineto
18729.5 106700 lineto
poly1
0 0 0 setrgbcolor
19000 105430 270.472 cir1
0 0 0 setrgbcolor
19000 104430 270.472 cir1
0 0 0 setrgbcolor
19000 103430 270.472 cir1
0 0 0 setrgbcolor
19000 102430 270.472 cir1
0 0 0 setrgbcolor
newpath
14270.5 89200.5 moveto
14270.5 88659.5 lineto
13729.5 88659.5 lineto
13729.5 89200.5 lineto
14270.5 89200.5 lineto
poly1
0 0 0 setrgbcolor
13000 88930 270.472 cir1
0 0 0 setrgbcolor
12000 88930 270.472 cir1
0 0 0 setrgbcolor
11000 88930 270.472 cir1
0 0 0 setrgbcolor
11500 100430 320.472 cir1
0 0 0 setrgbcolor
newpath
11820.5 101750 moveto
11820.5 101110 lineto
11179.5 101110 lineto
11179.5 101750 lineto
11820.5 101750 lineto
poly1
0 0 0 setrgbcolor
11500 102430 320.472 cir1
0 0 0 setrgbcolor
newpath
18920.5 90649.5 moveto
18079.5 90649.5 lineto
18079.5 91210.5 lineto
18920.5 91210.5 lineto
18920.5 90649.5 lineto
poly1
0 0 0 setrgbcolor
620 setlinewidth
newpath
18360 91930 moveto
18640 91930 lineto
stroke
0 0 0 setrgbcolor
newpath
18360 92930 moveto
18640 92930 lineto
stroke
0 0 0 setrgbcolor
newpath
18360 93930 moveto
18640 93930 lineto
stroke
0 0 0 setrgbcolor
newpath
18360 94930 moveto
18640 94930 lineto
stroke
0 0 0 setrgbcolor
newpath
18360 95930 moveto
18640 95930 lineto
stroke
0 0 0 setrgbcolor
newpath
18360 96930 moveto
18640 96930 lineto
stroke
0 0 0 setrgbcolor
newpath
18360 97930 moveto
18640 97930 lineto
stroke
0 0 0 setrgbcolor
newpath
18360 98930 moveto
18640 98930 lineto
stroke
0 0 0 setrgbcolor
newpath
15360 98930 moveto
15640 98930 lineto
stroke
0 0 0 setrgbcolor
newpath
15360 97930 moveto
15640 97930 lineto
stroke
0 0 0 setrgbcolor
newpath
15360 96930 moveto
15640 96930 lineto
stroke
0 0 0 setrgbcolor
newpath
15360 95930 moveto
15640 95930 lineto
stroke
0 0 0 setrgbcolor
newpath
15360 94930 moveto
15640 94930 lineto
stroke
0 0 0 setrgbcolor
newpath
15360 93930 moveto
15640 93930 lineto
stroke
0 0 0 setrgbcolor
newpath
15360 92930 moveto
15640 92930 lineto
stroke
0 0 0 setrgbcolor
newpath
15360 91930 moveto
15640 91930 lineto
stroke
0 0 0 setrgbcolor
newpath
15360 90930 moveto
15640 90930 lineto
stroke
0 0 0 setrgbcolor
59.0551 setlinewidth
newpath
12754.5 100675 moveto
13245.5 100675 lineto
13245.5 100185 lineto
12754.5 100185 lineto
12754.5 100675 lineto
poly1
0 0 0 setrgbcolor
13000 103430 245.472 cir1
0 0 0 setrgbcolor
13000 95430 245.472 cir1
0 0 0 setrgbcolor
11000 95430 245.472 cir1
0 0 0 setrgbcolor
newpath
17745.5 107175 moveto
17745.5 106685 lineto
17254.5 106685 lineto
17254.5 107175 lineto
17745.5 107175 lineto
poly1
0 0 0 setrgbcolor
16500 106930 245.472 cir1
0 0 0 setrgbcolor
newpath
15745.5 103185 moveto
15254.5 103185 lineto
15254.5 103675 lineto
15745.5 103675 lineto
15745.5 103185 lineto
poly1
0 0 0 setrgbcolor
15500 104430 245.472 cir1
0 0 0 setrgbcolor
newpath
15245.5 100685 moveto
14754.5 100685 lineto
14754.5 101175 lineto
15245.5 101175 lineto
15245.5 100685 lineto
poly1
0 0 0 setrgbcolor
15000 101930 245.472 cir1
0 0 0 setrgbcolor
newpath
13254.5 99675.5 moveto
13745.5 99675.5 lineto
13745.5 99184.5 lineto
13254.5 99184.5 lineto
13254.5 99675.5 lineto
poly1
0 0 0 setrgbcolor
13500 98430 245.472 cir1
0 0 0 setrgbcolor
newpath
21504.5 103185 moveto
21504.5 103675 lineto
21995.5 103675 lineto
21995.5 103185 lineto
21504.5 103185 lineto
poly1
0 0 0 setrgbcolor
23250 103430 245.472 cir1
0 0 0 setrgbcolor
newpath
24004.5 105685 moveto
24004.5 106175 lineto
24495.5 106175 lineto
24495.5 105685 lineto
24004.5 105685 lineto
poly1
0 0 0 setrgbcolor
25750 105930 245.472 cir1
0 0 0 setrgbcolor
12000 96930 245.472 cir1
0 0 0 setrgbcolor
13000 96930 245.472 cir1
0 0 0 setrgbcolor
17500 102430 245.472 cir1
0 0 0 setrgbcolor
17500 103430 245.472 cir1
0 0 0 setrgbcolor
24000 101430 245.472 cir1
0 0 0 setrgbcolor
24000 100430 245.472 cir1
0 0 0 setrgbcolor
28000 103430 245.472 cir1
0 0 0 setrgbcolor
27000 103430 245.472 cir1
0 0 0 setrgbcolor
12000 98430 245.472 cir1
0 0 0 setrgbcolor
11000 98430 245.472 cir1
0 0 0 setrgbcolor
14000 93430 167.323 cir1
0 0 0 setrgbcolor
14000 95930 167.323 cir1
0 0 0 setrgbcolor
26000 95430 145.472 cir1
0 0 0 setrgbcolor
28500 95930 145.472 cir1
0 0 0 setrgbcolor
20500 101430 145.472 cir1
0 0 0 setrgbcolor
20500 103430 145.472 cir1
0 0 0 setrgbcolor
16000 89430 145.472 cir1
0 0 0 setrgbcolor
18500 89430 145.472 cir1
0 0 0 setrgbcolor
196.85 setlinewidth
newpath
14000 93930 moveto
14000 93430 lineto
stroke
0 0 0 setrgbcolor
newpath
14000 95930 moveto
14000 93930 lineto
stroke
0 0 0 setrgbcolor
157.48 setlinewidth
newpath
26500 95930 moveto
28500 95930 lineto
stroke
0 0 0 setrgbcolor
newpath
26500 95930 moveto
26000 95430 lineto
stroke
0 0 0 setrgbcolor
newpath
20500 103430 moveto
20500 101430 lineto
stroke
0 0 0 setrgbcolor
newpath
18500 89430 moveto
16000 89430 lineto
stroke
showpage
grestore
%%EOF
