(export (version D)
  (design
    (source /home/johnny/Dropbox/proyectos/chinchorro/kicad/chinchorro.sch)
    (date "Thu 09 Jul 2015 10:53:49 AM COT")
    (tool "eeschema (25-Oct-2014 BZR 4029)-stable"))
  (components
    (comp (ref U1)
      (value 7805)
      (libsource (lib regul) (part 7805))
      (sheetpath (names /) (tstamps /))
      (tstamp 5519A20D))
    (comp (ref P1)
      (value VDC_In)
      (libsource (lib conn) (part CONN_2))
      (sheetpath (names /) (tstamps /))
      (tstamp 5519A242))
    (comp (ref D1)
      (value 1N4004)
      (libsource (lib device) (part DIODE))
      (sheetpath (names /) (tstamps /))
      (tstamp 5519A265))
    (comp (ref C1)
      (value 100µ)
      (libsource (lib device) (part CAPAPOL))
      (sheetpath (names /) (tstamps /))
      (tstamp 5519A280))
    (comp (ref C2)
      (value 100µ)
      (libsource (lib device) (part CAPAPOL))
      (sheetpath (names /) (tstamps /))
      (tstamp 5519A357))
    (comp (ref P2)
      (value 3Switch)
      (libsource (lib conn) (part CONN_4))
      (sheetpath (names /) (tstamps /))
      (tstamp 5519A3D7))
    (comp (ref U2)
      (value PIC16F628A)
      (libsource (lib microcontrollers) (part PIC16F628A))
      (sheetpath (names /) (tstamps /))
      (tstamp 5519A452))
    (comp (ref R1)
      (value 10k)
      (libsource (lib device) (part R))
      (sheetpath (names /) (tstamps /))
      (tstamp 5519AB1B))
    (comp (ref R2)
      (value 10k)
      (libsource (lib device) (part R))
      (sheetpath (names /) (tstamps /))
      (tstamp 5519AB2A))
    (comp (ref R3)
      (value 10k)
      (libsource (lib device) (part R))
      (sheetpath (names /) (tstamps /))
      (tstamp 5519AB39))
    (comp (ref X1)
      (value 4Mhz)
      (libsource (lib device) (part CRYSTAL))
      (sheetpath (names /) (tstamps /))
      (tstamp 5519AD00))
    (comp (ref C3)
      (value 22p)
      (libsource (lib device) (part C))
      (sheetpath (names /) (tstamps /))
      (tstamp 5519AD9B))
    (comp (ref C4)
      (value 22p)
      (libsource (lib device) (part C))
      (sheetpath (names /) (tstamps /))
      (tstamp 5519ADAA))
    (comp (ref Q1)
      (value NPN)
      (libsource (lib device) (part NPN))
      (sheetpath (names /) (tstamps /))
      (tstamp 5519B1AC))
    (comp (ref P3)
      (value CONN_R)
      (libsource (lib conn) (part CONN_2))
      (sheetpath (names /) (tstamps /))
      (tstamp 5519B1BB))
    (comp (ref R4)
      (value 1k)
      (libsource (lib device) (part R))
      (sheetpath (names /) (tstamps /))
      (tstamp 5519B2A7))
    (comp (ref Q2)
      (value NPN)
      (libsource (lib device) (part NPN))
      (sheetpath (names /) (tstamps /))
      (tstamp 5519B2EA))
    (comp (ref P4)
      (value CONN_G)
      (libsource (lib conn) (part CONN_2))
      (sheetpath (names /) (tstamps /))
      (tstamp 5519B2F0))
    (comp (ref R5)
      (value 1k)
      (libsource (lib device) (part R))
      (sheetpath (names /) (tstamps /))
      (tstamp 5519B307))
    (comp (ref Q3)
      (value NPN)
      (libsource (lib device) (part NPN))
      (sheetpath (names /) (tstamps /))
      (tstamp 5519B32D))
    (comp (ref P5)
      (value CONN_B)
      (libsource (lib conn) (part CONN_2))
      (sheetpath (names /) (tstamps /))
      (tstamp 5519B333))
    (comp (ref R6)
      (value 1k)
      (libsource (lib device) (part R))
      (sheetpath (names /) (tstamps /))
      (tstamp 5519B34A))
    (comp (ref Q4)
      (value NPN)
      (libsource (lib device) (part NPN))
      (sheetpath (names /) (tstamps /))
      (tstamp 5519B480))
    (comp (ref P6)
      (value CONN_M)
      (libsource (lib conn) (part CONN_2))
      (sheetpath (names /) (tstamps /))
      (tstamp 5519B486))
    (comp (ref R7)
      (value 1k)
      (libsource (lib device) (part R))
      (sheetpath (names /) (tstamps /))
      (tstamp 5519B49D))
    (comp (ref C11)
      (value 10µ)
      (libsource (lib device) (part CAPAPOL))
      (sheetpath (names /) (tstamps /))
      (tstamp 5519B551))
    (comp (ref C12)
      (value 100µ)
      (libsource (lib device) (part CAPAPOL))
      (sheetpath (names /) (tstamps /))
      (tstamp 5519B574))
    (comp (ref C5)
      (value 100n)
      (libsource (lib device) (part CAPAPOL))
      (sheetpath (names /) (tstamps /))
      (tstamp 5519B583))
    (comp (ref C6)
      (value 470µ)
      (libsource (lib device) (part CAPAPOL))
      (sheetpath (names /) (tstamps /))
      (tstamp 5519B852))
    (comp (ref C7)
      (value Cx)
      (libsource (lib device) (part C))
      (sheetpath (names /) (tstamps /))
      (tstamp 5519B8D4))
    (comp (ref R8)
      (value Rx)
      (libsource (lib device) (part R))
      (sheetpath (names /) (tstamps /))
      (tstamp 5519B957))
    (comp (ref R9)
      (value 220)
      (libsource (lib device) (part R))
      (sheetpath (names /) (tstamps /))
      (tstamp 5519BAAD))
    (comp (ref R10)
      (value 2.2)
      (libsource (lib device) (part R))
      (sheetpath (names /) (tstamps /))
      (tstamp 5519BAC6))
    (comp (ref C8)
      (value 1000µ)
      (libsource (lib device) (part CAPAPOL))
      (sheetpath (names /) (tstamps /))
      (tstamp 5519BD0C))
    (comp (ref C9)
      (value 100n)
      (libsource (lib device) (part C))
      (sheetpath (names /) (tstamps /))
      (tstamp 5519BD9E))
    (comp (ref R11)
      (value 1)
      (libsource (lib device) (part R))
      (sheetpath (names /) (tstamps /))
      (tstamp 5519BE31))
    (comp (ref P8)
      (value Parlante)
      (libsource (lib conn) (part CONN_2))
      (sheetpath (names /) (tstamps /))
      (tstamp 5519BF58))
    (comp (ref P7)
      (value Jack)
      (libsource (lib conn) (part CONN_2))
      (sheetpath (names /) (tstamps /))
      (tstamp 5519C0F6))
    (comp (ref U3)
      (value TDA2003)
      (libsource (lib misComponentes) (part TDA2003))
      (sheetpath (names /) (tstamps /))
      (tstamp 559E985D)))
  (libparts
    (libpart (lib device) (part C)
      (description "Condensateur non polarise")
      (footprints
        (fp SM*)
        (fp C?)
        (fp C1-1))
      (fields
        (field (name Reference) C)
        (field (name Value) C)
        (field (name Footprint) ~)
        (field (name Datasheet) ~))
      (pins
        (pin (num 1) (name ~) (type passive))
        (pin (num 2) (name ~) (type passive))))
    (libpart (lib device) (part CP)
      (description "Condensateur polarise")
      (footprints
        (fp CP*)
        (fp SM*))
      (fields
        (field (name Reference) C)
        (field (name Value) CP)
        (field (name Footprint) ~)
        (field (name Datasheet) ~))
      (pins
        (pin (num 1) (name ~) (type passive))
        (pin (num 2) (name ~) (type passive))))
    (libpart (lib device) (part CRYSTAL)
      (fields
        (field (name Reference) X)
        (field (name Value) CRYSTAL)
        (field (name Footprint) ~)
        (field (name Datasheet) ~))
      (pins
        (pin (num 1) (name 1) (type passive))
        (pin (num 2) (name 2) (type passive))))
    (libpart (lib device) (part DIODE)
      (description "Diode simple")
      (footprints
        (fp D?)
        (fp S*))
      (fields
        (field (name Reference) D)
        (field (name Value) DIODE)
        (field (name Footprint) ~)
        (field (name Datasheet) ~))
      (pins
        (pin (num 1) (name A) (type passive))
        (pin (num 2) (name K) (type passive))))
    (libpart (lib device) (part NPN)
      (docs transistors/bipolar/*.*)
      (fields
        (field (name Reference) Q)
        (field (name Value) NPN)
        (field (name Footprint) ~)
        (field (name Datasheet) ~))
      (pins
        (pin (num 1) (name E) (type passive))
        (pin (num 2) (name B) (type input))
        (pin (num 3) (name C) (type passive))))
    (libpart (lib device) (part R)
      (description Resistance)
      (footprints
        (fp R?)
        (fp SM0603)
        (fp SM0805)
        (fp R?-*)
        (fp SM1206))
      (fields
        (field (name Reference) R)
        (field (name Value) R)
        (field (name Footprint) ~)
        (field (name Datasheet) ~))
      (pins
        (pin (num 1) (name ~) (type passive))
        (pin (num 2) (name ~) (type passive))))
    (libpart (lib conn) (part CONN_2)
      (description "Symbole general de connecteur")
      (fields
        (field (name Reference) P)
        (field (name Value) CONN_2))
      (pins
        (pin (num 1) (name P1) (type passive))
        (pin (num 2) (name PM) (type passive))))
    (libpart (lib conn) (part CONN_4)
      (description "Symbole general de connecteur")
      (fields
        (field (name Reference) P)
        (field (name Value) CONN_4))
      (pins
        (pin (num 1) (name P1) (type passive))
        (pin (num 2) (name P2) (type passive))
        (pin (num 3) (name P3) (type passive))
        (pin (num 4) (name P4) (type passive))))
    (libpart (lib regul) (part 7805)
      (description "Linear Regulator +5V")
      (docs regulator\lm78xx.pdf)
      (fields
        (field (name Reference) U)
        (field (name Value) 7805))
      (pins
        (pin (num GND) (name GND) (type input))
        (pin (num VI) (name VI) (type input))
        (pin (num VO) (name VO) (type power_out))))
    (libpart (lib microcontrollers) (part PIC16F628A)
      (description "FLASH-Based 8-Bit CMOS Microcontroller")
      (fields
        (field (name Reference) U)
        (field (name Value) PIC16F628A))
      (pins
        (pin (num 1) (name RA2/AN2/VREF) (type BiDi))
        (pin (num 2) (name RA3/AN3/CMP1) (type BiDi))
        (pin (num 3) (name RA4/TOCKI/CMP2) (type BiDi))
        (pin (num 4) (name MCLR/RA5) (type input))
        (pin (num 5) (name VSS) (type power_in))
        (pin (num 6) (name RB0/INT) (type BiDi))
        (pin (num 7) (name RB1/RX/DT) (type BiDi))
        (pin (num 8) (name RB2/TX/CK) (type BiDi))
        (pin (num 9) (name RB3/CCP1) (type BiDi))
        (pin (num 10) (name RB4/PGM) (type BiDi))
        (pin (num 11) (name RB5) (type BiDi))
        (pin (num 12) (name RB6/T1OSC0/T1CKI/PGC) (type BiDi))
        (pin (num 13) (name RB7/T1OSI/PGD) (type BiDi))
        (pin (num 14) (name VDD) (type power_in))
        (pin (num 15) (name OSC2/RA6) (type output))
        (pin (num 16) (name OSC1/RA7) (type input))
        (pin (num 17) (name RA0/AN0) (type BiDi))
        (pin (num 18) (name RA1/AN1) (type BiDi))))
    (libpart (lib misComponentes) (part TDA2003)
      (fields
        (field (name Reference) U)
        (field (name Value) TDA2003))
      (pins
        (pin (num 1) (name IN+) (type input))
        (pin (num 2) (name IN-) (type input))
        (pin (num 3) (name VEE) (type power_in))
        (pin (num 4) (name OUT) (type output))
        (pin (num 5) (name VCC) (type power_in)))))
  (libraries
    (library (logical device)
      (uri /usr/share/kicad/library/device.lib))
    (library (logical conn)
      (uri /usr/share/kicad/library/conn.lib))
    (library (logical regul)
      (uri /usr/share/kicad/library/regul.lib))
    (library (logical microcontrollers)
      (uri /usr/share/kicad/library/microcontrollers.lib))
    (library (logical misComponentes)
      (uri ../../../MyLibraryKiCad/misComponentes.lib)))
  (nets
    (net (code 1) (name "")
      (node (ref Q4) (pin 3))
      (node (ref P6) (pin 2)))
    (net (code 2) (name M)
      (node (ref R7) (pin 1))
      (node (ref U2) (pin 9)))
    (net (code 3) (name GND)
      (node (ref P1) (pin 1))
      (node (ref P8) (pin 2))
      (node (ref C1) (pin 2))
      (node (ref C2) (pin 2))
      (node (ref P7) (pin 1))
      (node (ref Q2) (pin 1))
      (node (ref R10) (pin 2))
      (node (ref U3) (pin 3))
      (node (ref C4) (pin 1))
      (node (ref C3) (pin 1))
      (node (ref R11) (pin 2))
      (node (ref Q3) (pin 1))
      (node (ref C12) (pin 2))
      (node (ref Q1) (pin 1))
      (node (ref U1) (pin GND))
      (node (ref Q4) (pin 1))
      (node (ref C5) (pin 2))
      (node (ref P2) (pin 4))
      (node (ref U2) (pin 5)))
    (net (code 4) (name +5V)
      (node (ref P3) (pin 1))
      (node (ref U1) (pin VO))
      (node (ref C2) (pin 1))
      (node (ref U2) (pin 14))
      (node (ref R1) (pin 2))
      (node (ref R2) (pin 2))
      (node (ref R3) (pin 2))
      (node (ref P4) (pin 1))
      (node (ref P5) (pin 1))
      (node (ref P6) (pin 1)))
    (net (code 5) (name "")
      (node (ref Q4) (pin 2))
      (node (ref R7) (pin 2)))
    (net (code 6) (name R)
      (node (ref R4) (pin 1))
      (node (ref U2) (pin 6)))
    (net (code 7) (name G)
      (node (ref R5) (pin 1))
      (node (ref U2) (pin 7)))
    (net (code 8) (name B)
      (node (ref U2) (pin 8))
      (node (ref R6) (pin 1)))
    (net (code 9) (name +12V)
      (node (ref D1) (pin 1))
      (node (ref P1) (pin 2))
      (node (ref U3) (pin 5))
      (node (ref C5) (pin 1))
      (node (ref C12) (pin 1)))
    (net (code 10) (name "")
      (node (ref C11) (pin 2))
      (node (ref P7) (pin 2)))
    (net (code 11) (name "")
      (node (ref C11) (pin 1))
      (node (ref U3) (pin 1)))
    (net (code 12) (name "")
      (node (ref Q2) (pin 2))
      (node (ref R5) (pin 2)))
    (net (code 13) (name "")
      (node (ref R6) (pin 2))
      (node (ref Q3) (pin 2)))
    (net (code 14) (name "")
      (node (ref Q2) (pin 3))
      (node (ref P4) (pin 2)))
    (net (code 15) (name "")
      (node (ref P5) (pin 2))
      (node (ref Q3) (pin 3)))
    (net (code 16) (name "")
      (node (ref P8) (pin 1))
      (node (ref C9) (pin 1))
      (node (ref C8) (pin 2)))
    (net (code 17) (name "")
      (node (ref C9) (pin 2))
      (node (ref R11) (pin 1)))
    (net (code 18) (name "")
      (node (ref C7) (pin 1))
      (node (ref C8) (pin 1))
      (node (ref U3) (pin 4))
      (node (ref R9) (pin 1)))
    (net (code 19) (name "")
      (node (ref C7) (pin 2))
      (node (ref R8) (pin 2)))
    (net (code 20) (name "")
      (node (ref C6) (pin 1))
      (node (ref U3) (pin 2))
      (node (ref R8) (pin 1)))
    (net (code 21) (name "")
      (node (ref R9) (pin 2))
      (node (ref R10) (pin 1))
      (node (ref C6) (pin 2)))
    (net (code 22) (name "")
      (node (ref X1) (pin 1))
      (node (ref C3) (pin 2))
      (node (ref U2) (pin 15)))
    (net (code 23) (name "")
      (node (ref U2) (pin 13)))
    (net (code 24) (name "")
      (node (ref U2) (pin 12)))
    (net (code 25) (name "")
      (node (ref U2) (pin 11)))
    (net (code 26) (name "")
      (node (ref U2) (pin 10)))
    (net (code 27) (name "")
      (node (ref U2) (pin 3)))
    (net (code 28) (name "")
      (node (ref U2) (pin 2)))
    (net (code 29) (name "")
      (node (ref U2) (pin 4)))
    (net (code 30) (name "")
      (node (ref U2) (pin 16))
      (node (ref C4) (pin 2))
      (node (ref X1) (pin 2)))
    (net (code 31) (name "")
      (node (ref Q1) (pin 2))
      (node (ref R4) (pin 2)))
    (net (code 32) (name "")
      (node (ref Q1) (pin 3))
      (node (ref P3) (pin 2)))
    (net (code 33) (name "")
      (node (ref U1) (pin VI))
      (node (ref D1) (pin 2))
      (node (ref C1) (pin 1)))
    (net (code 34) (name "")
      (node (ref R3) (pin 1))
      (node (ref U2) (pin 1))
      (node (ref P2) (pin 1)))
    (net (code 35) (name "")
      (node (ref P2) (pin 2))
      (node (ref R2) (pin 1))
      (node (ref U2) (pin 18)))
    (net (code 36) (name "")
      (node (ref P2) (pin 3))
      (node (ref R1) (pin 1))
      (node (ref U2) (pin 17)))))