EESchema Schematic File Version 2
LIBS:power
LIBS:device
LIBS:transistors
LIBS:conn
LIBS:linear
LIBS:regul
LIBS:74xx
LIBS:cmos4000
LIBS:adc-dac
LIBS:memory
LIBS:xilinx
LIBS:special
LIBS:microcontrollers
LIBS:dsp
LIBS:microchip
LIBS:analog_switches
LIBS:motorola
LIBS:texas
LIBS:intel
LIBS:audio
LIBS:interface
LIBS:digital-audio
LIBS:philips
LIBS:display
LIBS:cypress
LIBS:siliconi
LIBS:opto
LIBS:atmel
LIBS:contrib
LIBS:valves
LIBS:misComponentes
LIBS:chinchorro-cache
EELAYER 27 0
EELAYER END
$Descr A4 11693 8268
encoding utf-8
Sheet 1 1
Title "Chinchorro"
Date "9 jul 2015"
Rev "1"
Comp ""
Comment1 "Johnny German Cubides Castro"
Comment2 "jgcubidesc@unal.edu.co"
Comment3 ""
Comment4 ""
$EndDescr
$Comp
L 7805 U1
U 1 1 5519A20D
P 2350 850
F 0 "U1" H 2500 654 60  0000 C CNN
F 1 "7805" H 2350 1050 60  0000 C CNN
F 2 "" H 2350 850 60  0000 C CNN
F 3 "" H 2350 850 60  0000 C CNN
	1    2350 850 
	1    0    0    -1  
$EndComp
$Comp
L CONN_2 P1
U 1 1 5519A242
P 750 900
F 0 "P1" V 700 900 40  0000 C CNN
F 1 "VDC_In" V 800 900 40  0000 C CNN
F 2 "" H 750 900 60  0000 C CNN
F 3 "" H 750 900 60  0000 C CNN
	1    750  900 
	-1   0    0    1   
$EndComp
$Comp
L DIODE D1
U 1 1 5519A265
P 1400 800
F 0 "D1" H 1400 900 40  0000 C CNN
F 1 "1N4004" H 1400 700 40  0000 C CNN
F 2 "~" H 1400 800 60  0000 C CNN
F 3 "~" H 1400 800 60  0000 C CNN
	1    1400 800 
	1    0    0    -1  
$EndComp
$Comp
L CAPAPOL C1
U 1 1 5519A280
P 1750 1100
F 0 "C1" H 1800 1200 40  0000 L CNN
F 1 "100µ" H 1800 1000 40  0000 L CNN
F 2 "~" H 1850 950 30  0000 C CNN
F 3 "~" H 1750 1100 300 0000 C CNN
	1    1750 1100
	1    0    0    -1  
$EndComp
$Comp
L GND #PWR01
U 1 1 5519A28F
P 1750 1400
F 0 "#PWR01" H 1750 1400 30  0001 C CNN
F 1 "GND" H 1750 1330 30  0001 C CNN
F 2 "" H 1750 1400 60  0000 C CNN
F 3 "" H 1750 1400 60  0000 C CNN
	1    1750 1400
	1    0    0    -1  
$EndComp
$Comp
L GND #PWR02
U 1 1 5519A29E
P 2350 1350
F 0 "#PWR02" H 2350 1350 30  0001 C CNN
F 1 "GND" H 2350 1280 30  0001 C CNN
F 2 "" H 2350 1350 60  0000 C CNN
F 3 "" H 2350 1350 60  0000 C CNN
	1    2350 1350
	1    0    0    -1  
$EndComp
$Comp
L GND #PWR03
U 1 1 5519A2AD
P 1150 1300
F 0 "#PWR03" H 1150 1300 30  0001 C CNN
F 1 "GND" H 1150 1230 30  0001 C CNN
F 2 "" H 1150 1300 60  0000 C CNN
F 3 "" H 1150 1300 60  0000 C CNN
	1    1150 1300
	1    0    0    -1  
$EndComp
$Comp
L +12V #PWR04
U 1 1 5519A334
P 1150 700
F 0 "#PWR04" H 1150 650 20  0001 C CNN
F 1 "+12V" H 1150 800 30  0000 C CNN
F 2 "" H 1150 700 60  0000 C CNN
F 3 "" H 1150 700 60  0000 C CNN
	1    1150 700 
	1    0    0    -1  
$EndComp
$Comp
L CAPAPOL C2
U 1 1 5519A357
P 3000 1150
F 0 "C2" H 3050 1250 40  0000 L CNN
F 1 "100µ" H 3050 1050 40  0000 L CNN
F 2 "~" H 3100 1000 30  0000 C CNN
F 3 "~" H 3000 1150 300 0000 C CNN
	1    3000 1150
	1    0    0    -1  
$EndComp
$Comp
L GND #PWR05
U 1 1 5519A366
P 3000 1450
F 0 "#PWR05" H 3000 1450 30  0001 C CNN
F 1 "GND" H 3000 1380 30  0001 C CNN
F 2 "" H 3000 1450 60  0000 C CNN
F 3 "" H 3000 1450 60  0000 C CNN
	1    3000 1450
	1    0    0    -1  
$EndComp
$Comp
L +5V #PWR06
U 1 1 5519A398
P 3000 700
F 0 "#PWR06" H 3000 790 20  0001 C CNN
F 1 "+5V" H 3000 790 30  0000 C CNN
F 2 "" H 3000 700 60  0000 C CNN
F 3 "" H 3000 700 60  0000 C CNN
	1    3000 700 
	1    0    0    -1  
$EndComp
$Comp
L CONN_4 P2
U 1 1 5519A3D7
P 5550 3750
F 0 "P2" V 5500 3750 50  0000 C CNN
F 1 "3Switch" V 5600 3750 50  0000 C CNN
F 2 "" H 5550 3750 60  0000 C CNN
F 3 "" H 5550 3750 60  0000 C CNN
	1    5550 3750
	1    0    0    -1  
$EndComp
$Comp
L GND #PWR07
U 1 1 5519A425
P 5150 4150
F 0 "#PWR07" H 5150 4150 30  0001 C CNN
F 1 "GND" H 5150 4080 30  0001 C CNN
F 2 "" H 5150 4150 60  0000 C CNN
F 3 "" H 5150 4150 60  0000 C CNN
	1    5150 4150
	1    0    0    -1  
$EndComp
$Comp
L PIC16F628A U2
U 1 1 5519A452
P 3050 3150
F 0 "U2" H 3350 3950 60  0000 C CNN
F 1 "PIC16F628A" H 3500 2350 60  0000 C CNN
F 2 "" H 3050 3150 60  0000 C CNN
F 3 "" H 3050 3150 60  0000 C CNN
	1    3050 3150
	1    0    0    -1  
$EndComp
$Comp
L R R1
U 1 1 5519AB1B
P 4500 4150
F 0 "R1" V 4580 4150 40  0000 C CNN
F 1 "10k" V 4507 4151 40  0000 C CNN
F 2 "~" V 4430 4150 30  0000 C CNN
F 3 "~" H 4500 4150 30  0000 C CNN
	1    4500 4150
	1    0    0    -1  
$EndComp
$Comp
L R R2
U 1 1 5519AB2A
P 4700 4150
F 0 "R2" V 4780 4150 40  0000 C CNN
F 1 "10k" V 4707 4151 40  0000 C CNN
F 2 "~" V 4630 4150 30  0000 C CNN
F 3 "~" H 4700 4150 30  0000 C CNN
	1    4700 4150
	1    0    0    -1  
$EndComp
$Comp
L R R3
U 1 1 5519AB39
P 4900 4150
F 0 "R3" V 4980 4150 40  0000 C CNN
F 1 "10k" V 4907 4151 40  0000 C CNN
F 2 "~" V 4830 4150 30  0000 C CNN
F 3 "~" H 4900 4150 30  0000 C CNN
	1    4900 4150
	1    0    0    -1  
$EndComp
$Comp
L +5V #PWR08
U 1 1 5519ABA8
P 4400 4600
F 0 "#PWR08" H 4400 4690 20  0001 C CNN
F 1 "+5V" H 4400 4690 30  0000 C CNN
F 2 "" H 4400 4600 60  0000 C CNN
F 3 "" H 4400 4600 60  0000 C CNN
	1    4400 4600
	0    -1   -1   0   
$EndComp
$Comp
L +5V #PWR09
U 1 1 5519AC8A
P 1900 2450
F 0 "#PWR09" H 1900 2540 20  0001 C CNN
F 1 "+5V" H 1900 2540 30  0000 C CNN
F 2 "" H 1900 2450 60  0000 C CNN
F 3 "" H 1900 2450 60  0000 C CNN
	1    1900 2450
	1    0    0    -1  
$EndComp
$Comp
L GND #PWR010
U 1 1 5519ACBA
P 1900 3900
F 0 "#PWR010" H 1900 3900 30  0001 C CNN
F 1 "GND" H 1900 3830 30  0001 C CNN
F 2 "" H 1900 3900 60  0000 C CNN
F 3 "" H 1900 3900 60  0000 C CNN
	1    1900 3900
	1    0    0    -1  
$EndComp
$Comp
L CRYSTAL X1
U 1 1 5519AD00
P 1300 2700
F 0 "X1" H 1300 2850 60  0000 C CNN
F 1 "4Mhz" H 1300 2550 60  0000 C CNN
F 2 "~" H 1300 2700 60  0000 C CNN
F 3 "~" H 1300 2700 60  0000 C CNN
	1    1300 2700
	1    0    0    -1  
$EndComp
$Comp
L C C3
U 1 1 5519AD9B
P 800 2400
F 0 "C3" H 800 2500 40  0000 L CNN
F 1 "22p" H 806 2315 40  0000 L CNN
F 2 "~" H 838 2250 30  0000 C CNN
F 3 "~" H 800 2400 60  0000 C CNN
	1    800  2400
	1    0    0    -1  
$EndComp
$Comp
L C C4
U 1 1 5519ADAA
P 1700 2400
F 0 "C4" H 1700 2500 40  0000 L CNN
F 1 "22p" H 1706 2315 40  0000 L CNN
F 2 "~" H 1738 2250 30  0000 C CNN
F 3 "~" H 1700 2400 60  0000 C CNN
	1    1700 2400
	1    0    0    -1  
$EndComp
$Comp
L GND #PWR011
U 1 1 5519AE4A
P 800 2050
F 0 "#PWR011" H 800 2050 30  0001 C CNN
F 1 "GND" H 800 1980 30  0001 C CNN
F 2 "" H 800 2050 60  0000 C CNN
F 3 "" H 800 2050 60  0000 C CNN
	1    800  2050
	-1   0    0    1   
$EndComp
$Comp
L GND #PWR012
U 1 1 5519AE59
P 1700 2050
F 0 "#PWR012" H 1700 2050 30  0001 C CNN
F 1 "GND" H 1700 1980 30  0001 C CNN
F 2 "" H 1700 2050 60  0000 C CNN
F 3 "" H 1700 2050 60  0000 C CNN
	1    1700 2050
	-1   0    0    1   
$EndComp
NoConn ~ 2000 3350
NoConn ~ 4350 3500
NoConn ~ 4350 3400
NoConn ~ 4350 2500
NoConn ~ 4350 2600
NoConn ~ 4350 2700
NoConn ~ 4350 2800
Wire Wire Line
	1200 800  1100 800 
Wire Wire Line
	1100 1000 1150 1000
Wire Wire Line
	1150 1000 1150 1300
Wire Wire Line
	1750 900  1750 800 
Wire Wire Line
	1600 800  1950 800 
Connection ~ 1750 800 
Wire Wire Line
	1750 1300 1750 1400
Wire Wire Line
	2350 1100 2350 1350
Wire Wire Line
	1150 700  1150 800 
Connection ~ 1150 800 
Wire Wire Line
	3000 1350 3000 1450
Wire Wire Line
	3000 700  3000 950 
Wire Wire Line
	3000 800  2750 800 
Connection ~ 3000 800 
Wire Wire Line
	5150 4150 5150 3900
Wire Wire Line
	5150 3900 5200 3900
Wire Wire Line
	5200 3800 4350 3800
Wire Wire Line
	5200 3700 4350 3700
Wire Wire Line
	5200 3600 4350 3600
Wire Wire Line
	4400 4600 4900 4600
Wire Wire Line
	4900 4600 4900 4400
Wire Wire Line
	4700 4400 4700 4600
Connection ~ 4700 4600
Wire Wire Line
	4500 4400 4500 4600
Connection ~ 4500 4600
Wire Wire Line
	4500 3900 4500 3800
Connection ~ 4500 3800
Wire Wire Line
	4700 3900 4700 3700
Connection ~ 4700 3700
Wire Wire Line
	4900 3900 4900 3600
Connection ~ 4900 3600
Wire Wire Line
	2000 2500 1900 2500
Wire Wire Line
	1900 2500 1900 2450
Wire Wire Line
	2000 3800 1900 3800
Wire Wire Line
	1900 3800 1900 3900
Wire Wire Line
	2000 2700 1600 2700
Wire Wire Line
	1000 2700 800  2700
Wire Wire Line
	800  2600 800  3000
Wire Wire Line
	800  3000 2000 3000
Wire Wire Line
	1700 2600 1700 2700
Connection ~ 1700 2700
Connection ~ 800  2700
Wire Wire Line
	1700 2200 1700 2050
Wire Wire Line
	800  2200 800  2050
Text GLabel 4450 3200 2    60   Output ~ 0
R
Wire Wire Line
	4450 3200 4350 3200
Text GLabel 4650 3100 2    60   Output ~ 0
G
Text GLabel 4450 3000 2    60   Output ~ 0
B
Wire Wire Line
	4350 3000 4450 3000
Wire Wire Line
	4350 3100 4650 3100
Text GLabel 4650 2900 2    60   Output ~ 0
M
Wire Wire Line
	4350 2900 4650 2900
$Comp
L NPN Q1
U 1 1 5519B1AC
P 6400 1550
F 0 "Q1" H 6400 1400 50  0000 R CNN
F 1 "NPN" H 6400 1700 50  0000 R CNN
F 2 "~" H 6400 1550 60  0000 C CNN
F 3 "~" H 6400 1550 60  0000 C CNN
	1    6400 1550
	1    0    0    -1  
$EndComp
$Comp
L CONN_2 P3
U 1 1 5519B1BB
P 7000 1050
F 0 "P3" V 6950 1050 40  0000 C CNN
F 1 "CONN_R" V 7050 1050 40  0000 C CNN
F 2 "" H 7000 1050 60  0000 C CNN
F 3 "" H 7000 1050 60  0000 C CNN
	1    7000 1050
	1    0    0    -1  
$EndComp
Wire Wire Line
	6500 1350 6500 1150
Wire Wire Line
	6500 1150 6650 1150
$Comp
L +5V #PWR013
U 1 1 5519B205
P 6500 850
F 0 "#PWR013" H 6500 940 20  0001 C CNN
F 1 "+5V" H 6500 940 30  0000 C CNN
F 2 "" H 6500 850 60  0000 C CNN
F 3 "" H 6500 850 60  0000 C CNN
	1    6500 850 
	1    0    0    -1  
$EndComp
Wire Wire Line
	6650 950  6500 950 
Wire Wire Line
	6500 950  6500 850 
$Comp
L GND #PWR014
U 1 1 5519B263
P 6500 1950
F 0 "#PWR014" H 6500 1950 30  0001 C CNN
F 1 "GND" H 6500 1880 30  0001 C CNN
F 2 "" H 6500 1950 60  0000 C CNN
F 3 "" H 6500 1950 60  0000 C CNN
	1    6500 1950
	1    0    0    -1  
$EndComp
Wire Wire Line
	6500 1950 6500 1750
$Comp
L R R4
U 1 1 5519B2A7
P 5850 1550
F 0 "R4" V 5930 1550 40  0000 C CNN
F 1 "1k" V 5857 1551 40  0000 C CNN
F 2 "~" V 5780 1550 30  0000 C CNN
F 3 "~" H 5850 1550 30  0000 C CNN
	1    5850 1550
	0    -1   -1   0   
$EndComp
Wire Wire Line
	6100 1550 6200 1550
$Comp
L NPN Q2
U 1 1 5519B2EA
P 8250 1650
F 0 "Q2" H 8250 1500 50  0000 R CNN
F 1 "NPN" H 8250 1800 50  0000 R CNN
F 2 "~" H 8250 1650 60  0000 C CNN
F 3 "~" H 8250 1650 60  0000 C CNN
	1    8250 1650
	1    0    0    -1  
$EndComp
$Comp
L CONN_2 P4
U 1 1 5519B2F0
P 8850 1150
F 0 "P4" V 8800 1150 40  0000 C CNN
F 1 "CONN_G" V 8900 1150 40  0000 C CNN
F 2 "" H 8850 1150 60  0000 C CNN
F 3 "" H 8850 1150 60  0000 C CNN
	1    8850 1150
	1    0    0    -1  
$EndComp
Wire Wire Line
	8350 1450 8350 1250
Wire Wire Line
	8350 1250 8500 1250
$Comp
L +5V #PWR015
U 1 1 5519B2F8
P 8350 950
F 0 "#PWR015" H 8350 1040 20  0001 C CNN
F 1 "+5V" H 8350 1040 30  0000 C CNN
F 2 "" H 8350 950 60  0000 C CNN
F 3 "" H 8350 950 60  0000 C CNN
	1    8350 950 
	1    0    0    -1  
$EndComp
Wire Wire Line
	8500 1050 8350 1050
Wire Wire Line
	8350 1050 8350 950 
$Comp
L GND #PWR016
U 1 1 5519B300
P 8350 2050
F 0 "#PWR016" H 8350 2050 30  0001 C CNN
F 1 "GND" H 8350 1980 30  0001 C CNN
F 2 "" H 8350 2050 60  0000 C CNN
F 3 "" H 8350 2050 60  0000 C CNN
	1    8350 2050
	1    0    0    -1  
$EndComp
Wire Wire Line
	8350 2050 8350 1850
$Comp
L R R5
U 1 1 5519B307
P 7700 1650
F 0 "R5" V 7780 1650 40  0000 C CNN
F 1 "1k" V 7707 1651 40  0000 C CNN
F 2 "~" V 7630 1650 30  0000 C CNN
F 3 "~" H 7700 1650 30  0000 C CNN
	1    7700 1650
	0    -1   -1   0   
$EndComp
Wire Wire Line
	7950 1650 8050 1650
$Comp
L NPN Q3
U 1 1 5519B32D
P 10000 1600
F 0 "Q3" H 10000 1450 50  0000 R CNN
F 1 "NPN" H 10000 1750 50  0000 R CNN
F 2 "~" H 10000 1600 60  0000 C CNN
F 3 "~" H 10000 1600 60  0000 C CNN
	1    10000 1600
	1    0    0    -1  
$EndComp
$Comp
L CONN_2 P5
U 1 1 5519B333
P 10600 1100
F 0 "P5" V 10550 1100 40  0000 C CNN
F 1 "CONN_B" V 10650 1100 40  0000 C CNN
F 2 "" H 10600 1100 60  0000 C CNN
F 3 "" H 10600 1100 60  0000 C CNN
	1    10600 1100
	1    0    0    -1  
$EndComp
Wire Wire Line
	10100 1400 10100 1200
Wire Wire Line
	10100 1200 10250 1200
$Comp
L +5V #PWR017
U 1 1 5519B33B
P 10100 900
F 0 "#PWR017" H 10100 990 20  0001 C CNN
F 1 "+5V" H 10100 990 30  0000 C CNN
F 2 "" H 10100 900 60  0000 C CNN
F 3 "" H 10100 900 60  0000 C CNN
	1    10100 900 
	1    0    0    -1  
$EndComp
Wire Wire Line
	10250 1000 10100 1000
Wire Wire Line
	10100 1000 10100 900 
$Comp
L GND #PWR018
U 1 1 5519B343
P 10100 2000
F 0 "#PWR018" H 10100 2000 30  0001 C CNN
F 1 "GND" H 10100 1930 30  0001 C CNN
F 2 "" H 10100 2000 60  0000 C CNN
F 3 "" H 10100 2000 60  0000 C CNN
	1    10100 2000
	1    0    0    -1  
$EndComp
Wire Wire Line
	10100 2000 10100 1800
$Comp
L R R6
U 1 1 5519B34A
P 9450 1600
F 0 "R6" V 9530 1600 40  0000 C CNN
F 1 "1k" V 9457 1601 40  0000 C CNN
F 2 "~" V 9380 1600 30  0000 C CNN
F 3 "~" H 9450 1600 30  0000 C CNN
	1    9450 1600
	0    -1   -1   0   
$EndComp
Wire Wire Line
	9700 1600 9800 1600
Text GLabel 5450 1550 0    60   Input ~ 0
R
Text GLabel 7300 1650 0    60   Input ~ 0
G
Text GLabel 9100 1600 0    60   Input ~ 0
B
Wire Wire Line
	9100 1600 9200 1600
Wire Wire Line
	7300 1650 7450 1650
Wire Wire Line
	5450 1550 5600 1550
$Comp
L NPN Q4
U 1 1 5519B480
P 10000 2950
F 0 "Q4" H 10000 2800 50  0000 R CNN
F 1 "NPN" H 10000 3100 50  0000 R CNN
F 2 "~" H 10000 2950 60  0000 C CNN
F 3 "~" H 10000 2950 60  0000 C CNN
	1    10000 2950
	1    0    0    -1  
$EndComp
$Comp
L CONN_2 P6
U 1 1 5519B486
P 10600 2450
F 0 "P6" V 10550 2450 40  0000 C CNN
F 1 "CONN_M" V 10650 2450 40  0000 C CNN
F 2 "" H 10600 2450 60  0000 C CNN
F 3 "" H 10600 2450 60  0000 C CNN
	1    10600 2450
	1    0    0    -1  
$EndComp
Wire Wire Line
	10100 2750 10100 2550
Wire Wire Line
	10100 2550 10250 2550
$Comp
L +5V #PWR019
U 1 1 5519B48E
P 10100 2250
F 0 "#PWR019" H 10100 2340 20  0001 C CNN
F 1 "+5V" H 10100 2340 30  0000 C CNN
F 2 "" H 10100 2250 60  0000 C CNN
F 3 "" H 10100 2250 60  0000 C CNN
	1    10100 2250
	1    0    0    -1  
$EndComp
Wire Wire Line
	10250 2350 10100 2350
Wire Wire Line
	10100 2350 10100 2250
$Comp
L GND #PWR020
U 1 1 5519B496
P 10100 3350
F 0 "#PWR020" H 10100 3350 30  0001 C CNN
F 1 "GND" H 10100 3280 30  0001 C CNN
F 2 "" H 10100 3350 60  0000 C CNN
F 3 "" H 10100 3350 60  0000 C CNN
	1    10100 3350
	1    0    0    -1  
$EndComp
Wire Wire Line
	10100 3350 10100 3150
$Comp
L R R7
U 1 1 5519B49D
P 9450 2950
F 0 "R7" V 9530 2950 40  0000 C CNN
F 1 "1k" V 9457 2951 40  0000 C CNN
F 2 "~" V 9380 2950 30  0000 C CNN
F 3 "~" H 9450 2950 30  0000 C CNN
	1    9450 2950
	0    -1   -1   0   
$EndComp
Wire Wire Line
	9700 2950 9800 2950
Text GLabel 9100 2950 0    60   Input ~ 0
M
Wire Wire Line
	9100 2950 9200 2950
$Comp
L CAPAPOL C11
U 1 1 5519B551
P 1600 5900
F 0 "C11" H 1650 6000 40  0000 L CNN
F 1 "10µ" H 1650 5800 40  0000 L CNN
F 2 "~" H 1700 5750 30  0000 C CNN
F 3 "~" H 1600 5900 300 0000 C CNN
	1    1600 5900
	0    1    1    0   
$EndComp
$Comp
L CAPAPOL C12
U 1 1 5519B574
P 3000 5600
F 0 "C12" H 3050 5700 40  0000 L CNN
F 1 "100µ" H 3050 5500 40  0000 L CNN
F 2 "~" H 3100 5450 30  0000 C CNN
F 3 "~" H 3000 5600 300 0000 C CNN
	1    3000 5600
	1    0    0    -1  
$EndComp
$Comp
L CAPAPOL C5
U 1 1 5519B583
P 3450 5600
F 0 "C5" H 3500 5700 40  0000 L CNN
F 1 "100n" H 3500 5500 40  0000 L CNN
F 2 "~" H 3550 5450 30  0000 C CNN
F 3 "~" H 3450 5600 300 0000 C CNN
	1    3450 5600
	1    0    0    -1  
$EndComp
$Comp
L +12V #PWR021
U 1 1 5519B5AA
P 3600 5300
F 0 "#PWR021" H 3600 5250 20  0001 C CNN
F 1 "+12V" H 3600 5400 30  0000 C CNN
F 2 "" H 3600 5300 60  0000 C CNN
F 3 "" H 3600 5300 60  0000 C CNN
	1    3600 5300
	1    0    0    -1  
$EndComp
Wire Wire Line
	3450 5400 3450 5350
Wire Wire Line
	2450 5350 3600 5350
Wire Wire Line
	3600 5350 3600 5300
Wire Wire Line
	3000 5350 3000 5400
Connection ~ 3450 5350
Connection ~ 3000 5350
$Comp
L GND #PWR022
U 1 1 5519B72E
P 2900 5900
F 0 "#PWR022" H 2900 5900 30  0001 C CNN
F 1 "GND" H 2900 5830 30  0001 C CNN
F 2 "" H 2900 5900 60  0000 C CNN
F 3 "" H 2900 5900 60  0000 C CNN
	1    2900 5900
	0    1    1    0   
$EndComp
Wire Wire Line
	2900 5900 3450 5900
Wire Wire Line
	3450 5900 3450 5800
Wire Wire Line
	3000 5800 3000 5900
Connection ~ 3000 5900
$Comp
L GND #PWR023
U 1 1 5519B7EA
P 2450 6650
F 0 "#PWR023" H 2450 6650 30  0001 C CNN
F 1 "GND" H 2450 6580 30  0001 C CNN
F 2 "" H 2450 6650 60  0000 C CNN
F 3 "" H 2450 6650 60  0000 C CNN
	1    2450 6650
	1    0    0    -1  
$EndComp
$Comp
L CAPAPOL C6
U 1 1 5519B852
P 2500 6850
F 0 "C6" H 2550 6950 40  0000 L CNN
F 1 "470µ" H 2550 6750 40  0000 L CNN
F 2 "~" H 2600 6700 30  0000 C CNN
F 3 "~" H 2500 6850 300 0000 C CNN
	1    2500 6850
	0    -1   -1   0   
$EndComp
Wire Wire Line
	2300 6850 1850 6850
Wire Wire Line
	1850 6100 1850 7200
$Comp
L C C7
U 1 1 5519B8D4
P 3150 6350
F 0 "C7" H 3150 6450 40  0000 L CNN
F 1 "Cx" H 3156 6265 40  0000 L CNN
F 2 "~" H 3188 6200 30  0000 C CNN
F 3 "~" H 3150 6350 60  0000 C CNN
	1    3150 6350
	1    0    0    -1  
$EndComp
Connection ~ 1850 6850
$Comp
L R R8
U 1 1 5519B957
P 2550 7200
F 0 "R8" V 2630 7200 40  0000 C CNN
F 1 "Rx" V 2557 7201 40  0000 C CNN
F 2 "~" V 2480 7200 30  0000 C CNN
F 3 "~" H 2550 7200 30  0000 C CNN
	1    2550 7200
	0    -1   -1   0   
$EndComp
Wire Wire Line
	1850 7200 2300 7200
Wire Wire Line
	2800 7200 3150 7200
Wire Wire Line
	3150 7200 3150 6550
Wire Wire Line
	3150 6000 3150 6150
$Comp
L R R9
U 1 1 5519BAAD
P 3500 6400
F 0 "R9" V 3580 6400 40  0000 C CNN
F 1 "220" V 3507 6401 40  0000 C CNN
F 2 "~" V 3430 6400 30  0000 C CNN
F 3 "~" H 3500 6400 30  0000 C CNN
	1    3500 6400
	1    0    0    -1  
$EndComp
$Comp
L R R10
U 1 1 5519BAC6
P 3500 7000
F 0 "R10" V 3580 7000 40  0000 C CNN
F 1 "2.2" V 3507 7001 40  0000 C CNN
F 2 "~" V 3430 7000 30  0000 C CNN
F 3 "~" H 3500 7000 30  0000 C CNN
	1    3500 7000
	1    0    0    -1  
$EndComp
Wire Wire Line
	3500 6650 3500 6750
Wire Wire Line
	3500 6050 3500 6150
Connection ~ 3150 6050
$Comp
L GND #PWR024
U 1 1 5519BC2F
P 3500 7400
F 0 "#PWR024" H 3500 7400 30  0001 C CNN
F 1 "GND" H 3500 7330 30  0001 C CNN
F 2 "" H 3500 7400 60  0000 C CNN
F 3 "" H 3500 7400 60  0000 C CNN
	1    3500 7400
	1    0    0    -1  
$EndComp
Wire Wire Line
	3500 7250 3500 7400
Wire Wire Line
	2700 6850 2900 6850
Wire Wire Line
	2900 6850 2900 6700
Wire Wire Line
	2900 6700 3500 6700
Connection ~ 3500 6700
$Comp
L CAPAPOL C8
U 1 1 5519BD0C
P 3900 6050
F 0 "C8" H 3950 6150 40  0000 L CNN
F 1 "1000µ" H 3950 5950 40  0000 L CNN
F 2 "~" H 4000 5900 30  0000 C CNN
F 3 "~" H 3900 6050 300 0000 C CNN
	1    3900 6050
	0    -1   -1   0   
$EndComp
Connection ~ 3500 6050
$Comp
L C C9
U 1 1 5519BD9E
P 4300 6400
F 0 "C9" H 4300 6500 40  0000 L CNN
F 1 "100n" H 4306 6315 40  0000 L CNN
F 2 "~" H 4338 6250 30  0000 C CNN
F 3 "~" H 4300 6400 60  0000 C CNN
	1    4300 6400
	1    0    0    -1  
$EndComp
Wire Wire Line
	4300 6200 4300 6050
Wire Wire Line
	4100 6050 4800 6050
$Comp
L R R11
U 1 1 5519BE31
P 4300 7000
F 0 "R11" V 4380 7000 40  0000 C CNN
F 1 "1" V 4307 7001 40  0000 C CNN
F 2 "~" V 4230 7000 30  0000 C CNN
F 3 "~" H 4300 7000 30  0000 C CNN
	1    4300 7000
	1    0    0    -1  
$EndComp
$Comp
L GND #PWR025
U 1 1 5519BE4A
P 4300 7400
F 0 "#PWR025" H 4300 7400 30  0001 C CNN
F 1 "GND" H 4300 7330 30  0001 C CNN
F 2 "" H 4300 7400 60  0000 C CNN
F 3 "" H 4300 7400 60  0000 C CNN
	1    4300 7400
	1    0    0    -1  
$EndComp
Wire Wire Line
	4300 7250 4300 7400
Wire Wire Line
	4300 6750 4300 6600
$Comp
L CONN_2 P8
U 1 1 5519BF58
P 5150 6150
F 0 "P8" V 5100 6150 40  0000 C CNN
F 1 "Parlante" V 5200 6150 40  0000 C CNN
F 2 "" H 5150 6150 60  0000 C CNN
F 3 "" H 5150 6150 60  0000 C CNN
	1    5150 6150
	1    0    0    -1  
$EndComp
Connection ~ 4300 6050
$Comp
L GND #PWR026
U 1 1 5519C05B
P 4650 6400
F 0 "#PWR026" H 4650 6400 30  0001 C CNN
F 1 "GND" H 4650 6330 30  0001 C CNN
F 2 "" H 4650 6400 60  0000 C CNN
F 3 "" H 4650 6400 60  0000 C CNN
	1    4650 6400
	1    0    0    -1  
$EndComp
Wire Wire Line
	4650 6400 4650 6250
Wire Wire Line
	4650 6250 4800 6250
$Comp
L CONN_2 P7
U 1 1 5519C0F6
P 800 6000
F 0 "P7" V 750 6000 40  0000 C CNN
F 1 "Jack" V 850 6000 40  0000 C CNN
F 2 "" H 800 6000 60  0000 C CNN
F 3 "" H 800 6000 60  0000 C CNN
	1    800  6000
	-1   0    0    1   
$EndComp
Wire Wire Line
	1400 5900 1150 5900
$Comp
L GND #PWR027
U 1 1 5519C196
P 1250 6400
F 0 "#PWR027" H 1250 6400 30  0001 C CNN
F 1 "GND" H 1250 6330 30  0001 C CNN
F 2 "" H 1250 6400 60  0000 C CNN
F 3 "" H 1250 6400 60  0000 C CNN
	1    1250 6400
	1    0    0    -1  
$EndComp
Wire Wire Line
	1250 6400 1250 6100
Wire Wire Line
	1250 6100 1150 6100
$Comp
L TDA2003 U3
U 1 1 559E985D
P 2450 6000
F 0 "U3" H 2250 6350 60  0000 C CNN
F 1 "TDA2003" H 2850 5800 60  0000 C CNN
F 2 "" H 2450 6000 60  0000 C CNN
F 3 "" H 2450 6000 60  0000 C CNN
	1    2450 6000
	1    0    0    -1  
$EndComp
Wire Wire Line
	3150 6050 3700 6050
Wire Wire Line
	2450 6500 2450 6650
Wire Wire Line
	1850 6100 1900 6100
Wire Wire Line
	1900 5900 1800 5900
Wire Wire Line
	2450 5350 2450 5500
$EndSCHEMATC
